{
    "/js/app.js": "/js/app.js",
    "/css/app.css": "/css/app.css",
    "/css/frontend.css": "/css/frontend.css",
    "/js/blog.js": "/js/blog.js",
    "/js/admin.js": "/js/admin.js",
    "/css/blog.css": "/css/blog.css",
    "/css/admin.css": "/css/admin.css"
}
